An R Client for the FRED API • fredr
…
# install.packages("devtools")
devtools::install_github("sboysel/fredr")

Example

You can use fredr() to fetch series from FRED. This fetches the US unemployment rate series from 1990-2000.

library(fredr)

fredr(
  series_id = "UNRATE",
  observation_start = as.Date("1990-01-01"),
  observation_end = as.Date("2000-01-01")
)
#> # A tibble: 121 x 5
#>    date       series_id value realtime_start realtime_end
#>    <date>     <chr>     <dbl> <date>         <date>      
#>  1 1990-01-01 UNRATE      5.4 2021-01-29     2021-01-29  
#>  2 1990-02-01 UNRATE      5.3 2021-01-29     2021-01-29  
#>  3 1990-03-01 UNRATE      5.2 2021-01-29     2021-01-29  
#>  4 1990-04-01 UNRATE      5.4 2021-01-29     2021-01-29  
#>  5 1990-05-01 UNRATE      5.4 2021-01-29     2021-01-29  
#>  6 1990-06-01 UNRATE      5.2 2021-01-29     2021-01-29  
#>  7 1990-07-01 UNRATE      5.5 2021-01-29     2021-01-29  
#>  8 1990-08-01 UNRATE      5.7 2021-01-29     2021-01-29  
#>  9 1990-09-01 UNRATE      5.9 2021-01-29     2021-01-29  
#> 10 1990-10-01 UNRATE      5.9 2021-01-29     2021-01-29  
#> # … with 111 more rows
…
