…
```r
library(fredr)
fredr_key("abcdefghijklmnopqrstuvwxyz123456")
```

### Search for FRED data objects

Search for FRED series

```r
fredr_search(search_text = "unemployment")
#> # A tibble: 1,000 x 16
#>                  id realtime_start realtime_end
#>               <chr>          <chr>        <chr>
#>  1           UNRATE     2017-12-23   2017-12-23
#>  2        UNRATENSA     2017-12-23   2017-12-23
#>  3             NROU     2017-12-23   2017-12-23
#>  4 M0892AUSM156SNBR     2017-12-23   2017-12-23
#>  5 Q0892BUSQ156SNBR     2017-12-23   2017-12-23
#>  6 M0892BUSM156SNBR     2017-12-23   2017-12-23
#>  7         UNEMPLOY     2017-12-23   2017-12-23
#>  8 M0892CUSM156NNBR     2017-12-23   2017-12-23
#>  9           U6RATE     2017-12-23   2017-12-23
#> 10        U6RATENSA     2017-12-23   2017-12-23
#> # ... with 990 more rows, and 13 more variables: title <chr>,
#> #   observation_start <chr>, observation_end <chr>, frequency <chr>,
#> #   frequency_short <chr>, units <chr>, units_short <chr>,
#> #   seasonal_adjustment <chr>, seasonal_adjustment_short <chr>,
#> #   last_updated <chr>, popularity <int>, group_popularity <int>,
#> #   notes <chr>
```
…
You may also use the `params` option for `fredr_docs` to go straight to the
endpoint's Parameters section.

```r
fredr_docs(endpoint = "category/related_tags", params = TRUE)
```

A list of possible endpoints is contained in the data frame `fredr_endpoints`

```r
fredr_endpoints
#> # A tibble: 31 x 3
#>                      endpoint       type
#>                         <chr>      <chr>
#>  1              fred/category Categories
#>  2     fred/category/children Categories
#>  3      fred/category/related Categories
#>  4       fred/category/series Categories
#>  5         fred/category/tags Categories
#>  6 fred/category/related_tags Categories
#>  7              fred/releases   Releases
#>  8        fred/releases/dates   Releases
#>  9               fred/release   Releases
#> 10         fred/release/dates   Releases
#> # ... with 21 more rows, and 1 more variables: note <chr>
```

### General queries

You can also use the backbone function `fredr` to run more general queries
against *any* [FRED API
endpoint](https://research.stlouisfed.org/docs/api/fred/) (e.g. Categories,
Series, Sources, Releases, Tags).  This is also useful to return any arbitrary
information as a `data.frame`.

```r
fredr(endpoint = "tags/series", tag_names = "population;south africa")
#> # A tibble: 59 x 16
#>                 id realtime_start realtime_end
#>              <chr>          <chr>        <chr>
#>  1 LFWA24TTZAA647N     2017-12-23   2017-12-23
#>  2 LFWA24TTZAA647S     2017-12-23   2017-12-23
#>  3 LFWA24TTZAQ647N     2017-12-23   2017-12-23
#>  4 LFWA24TTZAQ647S     2017-12-23   2017-12-23
#>  5 LFWA25TTZAA647N     2017-12-23   2017-12-23
#>  6 LFWA25TTZAA647S     2017-12-23   2017-12-23
#>  7 LFWA25TTZAQ647N     2017-12-23   2017-12-23
#>  8 LFWA25TTZAQ647S     2017-12-23   2017-12-23
#>  9 LFWA55TTZAA647N     2017-12-23   2017-12-23
#> 10 LFWA55TTZAA647S     2017-12-23   2017-12-23
#> # ... with 49 more rows, and 13 more variables: title <chr>,
#> #   observation_start <chr>, observation_end <chr>, frequency <chr>,
#> #   frequency_short <chr>, units <chr>, units_short <chr>,
#> #   seasonal_adjustment <chr>, seasonal_adjustment_short <chr>,
#> #   last_updated <chr>, popularity <int>, group_popularity <int>,
#> #   notes <chr>
```
…
