Get the FRED tags for a release — fredr_release_tags • fredr
…
fred/release/tags

    See also

    fredr_releases(), fredr_releases_dates(), fredr_release(),
fredr_release_dates(), fredr_release_series(), fredr_release_sources(),
fredr_release_related_tags(), fredr_release_tables()

    Examples

if (fredr_has_key()) {
fredr_release_tags(release_id = 10L)
}
#> # A tibble: 175 × 6
#>    name                           group_id notes created popularity series_count
#>    <chr>                          <chr>    <chr> <chr>        <int>        <int>
#>  1 bls                            src      "Bur… 2012-0…         87         4682
#>  2 cpi                            gen      "Con… 2012-0…         67         4682
#>  3 indexes                        gen      ""    2012-0…         84         4682
#>  4 price                          gen      ""    2013-0…         83         4682
#>  5 price index                    gen      ""    2012-0…         80         4682
#>  6 public domain: citation reque… cc        NA   2018-1…        100         4682
#>  7 usa                            geo      "Uni… 2012-0…        100         4682
#>  8 urban                          gen      ""    2012-0…         56         4680
#>  9 inflation                      gen      ""    2012-0…         74         4498
#> 10 nsa                            seas     "Not… 2012-0…        100         4480
#> # … with 165 more rows
…
