Get the series in a category — fredr_category_series • fredr
…
    See also

    fredr_category(), fredr_category_children(), fredr_category_related(),
fredr_category_tags(), fredr_category_related_tags()

    Examples

if (fredr_has_key()) {
# Top 10 most popular series belonging to the "Employment Cost Index" category
fredr_category_series(category_id = 1L, limit = 10L, order_by = "popularity")
# Series in the "Employment Cost Index" category, ordered by descending observation frequency
fredr_category_series(category_id = 4L, order_by = "frequency", sort_order = "desc")
}

#> # A tibble: 417 x 16
#>    id    realtime_start realtime_end title observation_sta… observation_end
#>    <chr> <chr>          <chr>        <chr> <chr>            <chr>          
#>  1 ECIW… 2020-11-23     2020-11-23   Empl… 2001-01-01       2020-07-01     
#>  2 ECIA… 2020-11-23     2020-11-23   Empl… 2001-01-01       2020-07-01     
#>  3 CIU2… 2020-11-23     2020-11-23   Empl… 2001-01-01       2020-07-01     
#>  4 CIS2… 2020-11-23     2020-11-23   Empl… 2003-01-01       2020-07-01     
#>  5 CIU2… 2020-11-23     2020-11-23   Empl… 2001-01-01       2020-07-01     
#>  6 CIU2… 2020-11-23     2020-11-23   Empl… 2001-01-01       2020-07-01     
#>  7 CIS1… 2020-11-23     2020-11-23   Empl… 2001-01-01       2020-07-01     
#>  8 CIU1… 2020-11-23     2020-11-23   Empl… 2001-01-01       2020-07-01     
#>  9 CIU2… 2020-11-23     2020-11-23   Empl… 2001-01-01       2020-07-01     
#> 10 CIS2… 2020-11-23     2020-11-23   Empl… 2003-01-01       2020-07-01     
#> # … with 407 more rows, and 10 more variables: frequency <chr>,
#> #   frequency_short <chr>, units <chr>, units_short <chr>,
#> #   seasonal_adjustment <chr>, seasonal_adjustment_short <chr>,
#> #   last_updated <chr>, popularity <int>, group_popularity <int>, notes <chr>
…
