Get observations of a FRED series — fredr_series_observations • fredr
…
  # Using purrr::pmap_dfr() allows you to use varying optional parameters
  params <- list(
    series_id = c("UNRATE", "OILPRICE"),
    frequency = c("m", "q")
  )

  purrr::pmap_dfr(
    .l = params,
    .f = ~ fredr(series_id = .x, frequency = .y)
  )

}

}
#> # A tibble: 1,164 × 5
#>    date       series_id value realtime_start realtime_end
#>    <date>     <chr>     <dbl> <date>         <date>      
#>  1 1948-01-01 UNRATE      3.4 2022-07-04     2022-07-04  
#>  2 1948-02-01 UNRATE      3.8 2022-07-04     2022-07-04  
#>  3 1948-03-01 UNRATE      4   2022-07-04     2022-07-04  
#>  4 1948-04-01 UNRATE      3.9 2022-07-04     2022-07-04  
#>  5 1948-05-01 UNRATE      3.5 2022-07-04     2022-07-04  
#>  6 1948-06-01 UNRATE      3.6 2022-07-04     2022-07-04  
#>  7 1948-07-01 UNRATE      3.6 2022-07-04     2022-07-04  
#>  8 1948-08-01 UNRATE      3.9 2022-07-04     2022-07-04  
#>  9 1948-09-01 UNRATE      3.8 2022-07-04     2022-07-04  
#> 10 1948-10-01 UNRATE      3.7 2022-07-04     2022-07-04  
#> # … with 1,154 more rows
…
