Get the related FRED tags within a category — fredr_category_related_tags • fredr
…
    See also

    fredr_category(), fredr_category_children(), fredr_category_related(),
fredr_category_series(), fredr_category_tags()

    Examples

if (fredr_has_key()) {
# First, get the tags for the "Production & Business Activity" category
fredr_category_tags(1L)
# Then, get the tags related to "business" and "monthly" for the
# "Production & Business Activity" category
fredr_category_related_tags(category_id = 1L, tag_names = "business;monthly")
}
#> # A tibble: 104 × 6
#>    name                              group_id notes      created popul…¹ serie…²
#>    <chr>                             <chr>    <chr>      <chr>     <int>   <int>
#>  1 census                            src      "Census"   2012-0…      79    1684
#>  2 public domain: citation requested cc        NA        2018-1…      99    1684
#>  3 usa                               geo      "United S… 2012-0…     100    1684
#>  4 state                             geot     "State"    2012-0…      74    1128
#>  5 business formations               gen       NA        2019-0…      10     890
#>  6 nsa                               seas     "Not Seas… 2012-0…      99     890
#>  7 sa                                seas     "Seasonal… 2012-0…      88     794
#>  8 business applications             gen       NA        2019-0…      30     788
#>  9 nation                            geot     ""         2012-0…      99     482
#> 10 projection                        gen      ""         2012-0…      48     312
#> # … with 94 more rows, and abbreviated variable names ¹​popularity,
#> #   ²​series_count
…
