Find FRED series matching tag names — fredr_tags_series • fredr
…
# All series tagged with "gdp" and not tagged with "quarterly"
fredr_tags_series(
   tag_names = "gdp",
   exclude_tag_names = "quarterly"
 )
# Top 100 most popular non-quarterly series matching GDP
fredr_tags_series(
   tag_names = "gdp",
   exclude_tag_names = "quarterly",
   order_by = "popularity",
   limit = 100L
)
}

#> # A tibble: 100 x 16
#>    id    realtime_start realtime_end title observation_sta… observation_end
#>    <chr> <chr>          <chr>        <chr> <chr>            <chr>          
#>  1 H407… 2020-12-14     2020-12-14   Comp… 1929-01-01       1948-01-01     
#>  2 B407… 2020-12-14     2020-12-14   Comp… 1987-01-01       2000-01-01     
#>  3 J404… 2020-12-14     2020-12-14   Comp… 1948-01-01       1987-01-01     
#>  4 N404… 2020-12-14     2020-12-14   Comp… 1998-01-01       2019-01-01     
#>  5 B405… 2020-12-14     2020-12-14   Comp… 1987-01-01       2000-01-01     
#>  6 H405… 2020-12-14     2020-12-14   Comp… 1929-01-01       1948-01-01     
#>  7 J405… 2020-12-14     2020-12-14   Comp… 1948-01-01       1969-01-01     
#>  8 B490… 2020-12-14     2020-12-14   Empl… 1987-01-01       2000-01-01     
#>  9 J491… 2020-12-14     2020-12-14   Empl… 1948-01-01       1987-01-01     
#> 10 B480… 2020-12-14     2020-12-14   Empl… 1948-01-01       1987-01-01     
#> # … with 90 more rows, and 10 more variables: frequency <chr>,
#> #   frequency_short <chr>, units <chr>, units_short <chr>,
#> #   seasonal_adjustment <chr>, seasonal_adjustment_short <chr>,
#> #   last_updated <chr>, popularity <int>, group_popularity <int>, notes <chr>
…
