Get the series on a release of economic data — fredr_release_series • fredr
…
    Examples

if (fredr_has_key()) {
fredr_release_series(release_id = 20L)

fredr_release_series(release_id = 20L, order_by = "popularity")

# Extract the "catalog" of series from a release on a certain date
fredr_release_series(
   release_id = 20L,
   realtime_end = as.Date("2018-07-13"),
   order_by = "popularity"
)
}
#> # A tibble: 912 × 16
#>    id       realtime_start realtime_end title  observation_start observation_end
#>    <chr>    <chr>          <chr>        <chr>  <chr>             <chr>          
#>  1 ABS1690  2010-02-04     2014-11-05   Asset… 2002-12-18        2014-10-29     
#>  2 ABS1690  2014-11-06     2018-07-13   Asset… 2002-12-18        2014-11-05     
#>  3 D6WABPL  2011-07-07     2018-07-13   Asset… 2002-12-18        2018-07-11     
#>  4 D1WABPL  2011-07-07     2018-07-13   Asset… 2002-12-18        2018-07-11     
#>  5 D4WABPL  2011-07-07     2018-07-13   Asset… 2002-12-18        2018-07-11     
#>  6 D11WABPL 2011-07-07     2018-07-13   Asset… 2002-12-18        2018-07-11     
#>  7 D9WABPL  2011-07-07     2018-07-13   Asset… 2002-12-18        2018-07-11     
#>  8 D3WABPL  2011-07-07     2018-07-13   Asset… 2002-12-18        2018-07-11     
#>  9 D5WABPL  2011-07-07     2018-07-13   Asset… 2002-12-18        2018-07-11     
#> 10 D7WFCDA  2013-04-18     2018-07-13   Asset… 2002-12-18        2018-07-11     
#> # ℹ 902 more rows
#> # ℹ 10 more variables: frequency <chr>, frequency_short <chr>, units <chr>,
#> #   units_short <chr>, seasonal_adjustment <chr>,
#> #   seasonal_adjustment_short <chr>, last_updated <chr>, popularity <int>,
#> #   group_popularity <int>, notes <chr>
…
