Interact with the FRED API in the R workspace • fredr
…
# install.packages("devtools")
devtools::install_github("sboysel/fredr")

Usage

Load fredr and set FRED API key in working directory. You must first obtain a FRED API key. It is also recommended to reveiw the FRED API Terms of Use.

library(fredr)
fredr_key("abcdefghijklmnopqrstuvwxyz123456")

Search for FRED series

fredr_search(search_text = "unemployment")
#> # A tibble: 1,000 x 15
#>                  id realtime_start realtime_end
#>               <chr>          <chr>        <chr>
#>  1           UNRATE     2017-06-03   2017-06-03
#>  2        UNRATENSA     2017-06-03   2017-06-03
#>  3             NROU     2017-06-03   2017-06-03
#>  4 M0892AUSM156SNBR     2017-06-03   2017-06-03
#>  5 Q0892BUSQ156SNBR     2017-06-03   2017-06-03
#>  6 M0892BUSM156SNBR     2017-06-03   2017-06-03
#>  7           U6RATE     2017-06-03   2017-06-03
#>  8 M0892CUSM156NNBR     2017-06-03   2017-06-03
#>  9         UNEMPLOY     2017-06-03   2017-06-03
#> 10        U6RATENSA     2017-06-03   2017-06-03
#> # ... with 990 more rows, and 12 more variables: title <chr>,
#> #   observation_start <chr>, observation_end <chr>, frequency <chr>,
#> #   frequency_short <chr>, units <chr>, units_short <chr>,
#> #   seasonal_adjustment <chr>, seasonal_adjustment_short <chr>,
#> #   last_updated <chr>, popularity <int>, notes <chr>
…
Quickly access the FRED API web documentation for any endpoint

fredr_docs(endpoint = "series/observations")

You may also use the params option for fredr_docs to go straight to the endpoint’s Parameters section.

fredr_docs(endpoint = "category/related_tags", params = TRUE)

You can also use the backbone function fredr to run more general queries against any FRED API endpoint (e.g. Categories, Series, Sources, Releases, Tags). This is also useful to return any arbitrary information as a tbl_df object.

fredr(endpoint = "tags/series", tag_names = "population;south africa")
#> # A tibble: 59 x 15
#>                 id realtime_start realtime_end
#>              <chr>          <chr>        <chr>
#>  1 LFWA24TTZAA647N     2017-06-03   2017-06-03
#>  2 LFWA24TTZAA647S     2017-06-03   2017-06-03
#>  3 LFWA24TTZAQ647N     2017-06-03   2017-06-03
#>  4 LFWA24TTZAQ647S     2017-06-03   2017-06-03
#>  5 LFWA25TTZAA647N     2017-06-03   2017-06-03
#>  6 LFWA25TTZAA647S     2017-06-03   2017-06-03
#>  7 LFWA25TTZAQ647N     2017-06-03   2017-06-03
#>  8 LFWA25TTZAQ647S     2017-06-03   2017-06-03
#>  9 LFWA55TTZAA647N     2017-06-03   2017-06-03
#> 10 LFWA55TTZAA647S     2017-06-03   2017-06-03
#> # ... with 49 more rows, and 12 more variables: title <chr>,
#> #   observation_start <chr>, observation_end <chr>, frequency <chr>,
#> #   frequency_short <chr>, units <chr>, units_short <chr>,
#> #   seasonal_adjustment <chr>, seasonal_adjustment_short <chr>,
#> #   last_updated <chr>, popularity <int>, notes <chr>
…
