FRED Categories • fredr
…
Get series in a category

fredr_category_series() returns detailed information for the FRED series belonging to the category specified by category_id. The data returned is a tibble in which each row represents a series belonging to the category specified. The default is the root category. For example, to get the top 100 quarterly series in the “Housing” category, ordering the results so that the most recently updated series appear first:

fredr_category_series(
  category_id = 97L, # Housing
  limit = 100L,
  order_by = "last_updated",
  filter_variable = "frequency",
  filter_value = "Quarterly"
)
#> # A tibble: 25 x 16
#>    id    realtime_start realtime_end title observation_sta… observation_end
#>  * <chr> <chr>          <chr>        <chr> <chr>            <chr>          
#>  1 ETOT… 2018-07-22     2018-07-22   Hous… 2000-04-01       2018-01-01     
#>  2 RHOR… 2018-07-22     2018-07-22   Home… 1965-01-01       2018-01-01     
#>  3 RRVR… 2018-07-22     2018-07-22   Rent… 1956-01-01       2018-01-01     
#>  4 EOWN… 2018-07-22     2018-07-22   Hous… 2000-04-01       2018-01-01     
#>  5 EREN… 2018-07-22     2018-07-22   Hous… 2000-04-01       2018-01-01     
#>  6 ERNT… 2018-07-22     2018-07-22   Hous… 2000-04-01       2018-01-01     
#>  7 ESAL… 2018-07-22     2018-07-22   Hous… 2000-04-01       2018-01-01     
#>  8 EVAC… 2018-07-22     2018-07-22   Hous… 2000-04-01       2018-01-01     
#>  9 RHVR… 2018-07-22     2018-07-22   Home… 1956-01-01       2018-01-01     
#> 10 RSAH… 2018-07-22     2018-07-22   Home… 1980-01-01       2018-01-01     
#> # ... with 15 more rows, and 10 more variables: frequency <chr>,
#> #   frequency_short <chr>, units <chr>, units_short <chr>,
#> #   seasonal_adjustment <chr>, seasonal_adjustment_short <chr>,
#> #   last_updated <chr>, popularity <int>, group_popularity <int>,
#> #   notes <chr>
…
