FRED Sources • fredr
…
      Source: vignettes/fredr-sources.Rmd
      fredr-sources.Rmd

Introduction

This vignette is intended to introduce the user to fredr functions for the Sources endpoint of the FRED API.

FRED series are derived from a specific data source. Each FRED source is assigned an integer identifier. The following examples illustrate usage of the Sources endpoint functions in fredr.

Get FRED sources

The function fredr_sources() returns a list of FRED data sources. The information returned is a tibble in which each row represents a FRED source. For example, running fredr_sources() without any arguments returns the first 1000 (limit default) sources ordered by ascending source ID:

fredr_sources()
#> # A tibble: 87 x 6
#>       id realtime_start realtime_end name                link        notes
#>  * <int> <chr>          <chr>        <chr>               <chr>       <chr>
#>  1     1 2018-07-22     2018-07-22   Board of Governors… http://www… <NA> 
#>  2     3 2018-07-22     2018-07-22   Federal Reserve Ba… http://www… <NA> 
#>  3     4 2018-07-22     2018-07-22   Federal Reserve Ba… http://www… <NA> 
#>  4     6 2018-07-22     2018-07-22   Federal Financial … http://www… <NA> 
#>  5    11 2018-07-22     2018-07-22   Dow Jones & Company http://www… <NA> 
#>  6    14 2018-07-22     2018-07-22   University of Mich… https://ww… <NA> 
#>  7    15 2018-07-22     2018-07-22   Council of Economi… http://www… <NA> 
#>  8    16 2018-07-22     2018-07-22   U.S. Office of Man… http://www… <NA> 
#>  9    17 2018-07-22     2018-07-22   U.S. Congressional… http://www… <NA> 
#> 10    18 2018-07-22     2018-07-22   U.S. Bureau of Eco… http://www… <NA> 
#> # ... with 77 more rows
…
