Getting started with fredr • fredr
…
To use fredr and the FRED API in general, you must first obtain a FRED API key. It is also recommended to review the FRED API Terms of Use. Once you’ve obtained an API key, you can set the key as an environment variable using fredr_set_key

fredr_set_key("abcdefghijklmnopqrstuvwxyz123456")

where “abcdefghijklmnopqrstuvwxyz123456” is replaced with the actual key you obtain from FRED. This will set the key for the current session. You can persistently set the key by appending the line FRED_API_KEY=abcdefghijklmnopqrstuvwxyz123456 to an .Renviron file in the working directory or at the user level. This can be done using a text editor or by running usethis::edit_r_environ(). If you edit the .Renviron file, remember to either restart the session or run readRenviron(".Renviron") for the changes to take effect.

Retrieve series observations

The fredr() function (an alias for fredr_series_observations()) retrieves series observations (i.e. the actual time series data) for a specified FRED series ID. The function returns a tibble with 3 columns (observation date, series ID, and value).

fredr(
  series_id = "UNRATE",
  observation_start = as.Date("1990-01-01")
)
#> # A tibble: 342 x 3
#>    date       series_id value
#>    <date>     <chr>     <dbl>
#>  1 1990-01-01 UNRATE      5.4
#>  2 1990-02-01 UNRATE      5.3
#>  3 1990-03-01 UNRATE      5.2
#>  4 1990-04-01 UNRATE      5.4
#>  5 1990-05-01 UNRATE      5.4
#>  6 1990-06-01 UNRATE      5.2
#>  7 1990-07-01 UNRATE      5.5
#>  8 1990-08-01 UNRATE      5.7
#>  9 1990-09-01 UNRATE      5.9
#> 10 1990-10-01 UNRATE      5.9
#> # ... with 332 more rows

Leverage the native features of the FRED API by passing additional parameters:

fredr_series_observations(
  series_id = "UNRATE",
  observation_start = as.Date("1990-01-01"),
  frequency = "q",
  units = "chg"
)
#> # A tibble: 114 x 3
#>    date       series_id   value
#>    <date>     <chr>       <dbl>
#>  1 1990-01-01 UNRATE    -0.0667
#>  2 1990-04-01 UNRATE     0.0333
#>  3 1990-07-01 UNRATE     0.367 
#>  4 1990-10-01 UNRATE     0.433 
#>  5 1991-01-01 UNRATE     0.467 
#>  6 1991-04-01 UNRATE     0.233 
#>  7 1991-07-01 UNRATE     0.0333
#>  8 1991-10-01 UNRATE     0.233 
#>  9 1992-01-01 UNRATE     0.267 
#> 10 1992-04-01 UNRATE     0.233 
#> # ... with 104 more rows
…
Using purrr::pmap_dfr() allows you to use varying optional parameters as well.

params <- list(
  series_id = c("UNRATE", "OILPRICE"),
  frequency = c("m", "q")
)

pmap_dfr(
  .l = params,
  .f = ~ fredr(series_id = .x, frequency = .y)
)
#> # A tibble: 1,117 x 3
#>    date       series_id value
#>    <date>     <chr>     <dbl>
#>  1 1948-01-01 UNRATE      3.4
#>  2 1948-02-01 UNRATE      3.8
#>  3 1948-03-01 UNRATE      4  
#>  4 1948-04-01 UNRATE      3.9
#>  5 1948-05-01 UNRATE      3.5
#>  6 1948-06-01 UNRATE      3.6
#>  7 1948-07-01 UNRATE      3.6
#>  8 1948-08-01 UNRATE      3.9
#>  9 1948-09-01 UNRATE      3.8
#> 10 1948-10-01 UNRATE      3.7
#> # ... with 1,107 more rows
…
Categories

Releases

Series

Sources

Tags

Finally, fredr is packaged with a list of possible endpoints in the tibble named fredr_endpoints:

fredr_endpoints
#> # A tibble: 31 x 3
#>    endpoint              type     note                                    
#>    <chr>                 <chr>    <chr>                                   
#>  1 fred/category         Categor… Get a category                          
#>  2 fred/category/childr… Categor… Get the child categories for a specifie…
#>  3 fred/category/related Categor… Get the related categories for a catego…
#>  4 fred/category/series  Categor… Get the series in a category            
#>  5 fred/category/tags    Categor… Get the tags for a category             
#>  6 fred/category/relate… Categor… Get the related tags for a category     
#>  7 fred/releases         Releases Get all releases of economic data       
#>  8 fred/releases/dates   Releases Get release dates for all releases of e…
#>  9 fred/release          Releases Get a release of economic data          
#> 10 fred/release/dates    Releases Get release dates for a release of econ…
#> # ... with 21 more rows
…
To get the most out of the native features of the FRED API, it is highly recommended to review the API endpoint documentation. Within an R session, you can quickly access the web documentation for any endpoint with the convenience function fredr_docs(). The following example will open a web browser to the FRED API documentation page on the series/observations endpoint.

fredr_docs(endpoint = "series/observations")

You may also use the params option for fredr_docs to go straight to the endpoint’s Parameters section.

fredr_docs(endpoint = "category/related_tags", params = TRUE)

General queries

You can also use the low-level function fredr_request() to run more general queries against any FRED API endpoint (e.g. Categories, Series, Sources, Releases, Tags). The required parameter is endpoint (see fredr_endpoints for a list of valid endpoints) and then all API parameters are passed through as named arguments. For example:

fredr_request(endpoint = "tags/series", tag_names = "population;south africa", limit = 25L)
#> # A tibble: 25 x 16
#>    id    realtime_start realtime_end title observation_sta… observation_end
#>  * <chr> <chr>          <chr>        <chr> <chr>            <chr>          
#>  1 LFWA… 2018-07-22     2018-07-22   Work… 2008-01-01       2017-01-01     
#>  2 LFWA… 2018-07-22     2018-07-22   Work… 2008-01-01       2017-01-01     
#>  3 LFWA… 2018-07-22     2018-07-22   Work… 2008-01-01       2017-10-01     
#>  4 LFWA… 2018-07-22     2018-07-22   Work… 2008-01-01       2017-10-01     
#>  5 LFWA… 2018-07-22     2018-07-22   Work… 2008-01-01       2017-01-01     
#>  6 LFWA… 2018-07-22     2018-07-22   Work… 2008-01-01       2017-01-01     
#>  7 LFWA… 2018-07-22     2018-07-22   Work… 2008-01-01       2017-10-01     
#>  8 LFWA… 2018-07-22     2018-07-22   Work… 2008-01-01       2017-10-01     
#>  9 LFWA… 2018-07-22     2018-07-22   Work… 2008-01-01       2017-01-01     
#> 10 LFWA… 2018-07-22     2018-07-22   Work… 2008-01-01       2017-01-01     
#> # ... with 15 more rows, and 10 more variables: frequency <chr>,
#> #   frequency_short <chr>, units <chr>, units_short <chr>,
#> #   seasonal_adjustment <chr>, seasonal_adjustment_short <chr>,
#> #   last_updated <chr>, popularity <int>, group_popularity <int>,
#> #   notes <chr>
…
