FRED Releases • fredr
…
      Source: vignettes/fredr-releases.Rmd
      fredr-releases.Rmd

Introduction

This vignette is intended to introduce the user to fredr functions for the Releases endpoint of the FRED API.

FRED series are added to the FRED database over time in releases. Each FRED release is assigned an integer identifier. The following examples illustrate usage of the Releases endpoint functions in fredr.

Get all releases of economic data

The function fredr_releases() returns a set of all FRED releases matching the request. The data returned is a tibble in which each row represents a FRED release. The default call returns all FRED releases:

fredr_releases()
#> # A tibble: 269 x 7
#>       id realtime_start realtime_end name     press_release link   notes  
#>  * <int> <chr>          <chr>        <chr>    <lgl>         <chr>  <chr>  
#>  1     9 2018-07-22     2018-07-22   Advance… TRUE          http:… "The U…
#>  2    10 2018-07-22     2018-07-22   Consume… TRUE          http:… <NA>   
#>  3    11 2018-07-22     2018-07-22   Employm… TRUE          http:… <NA>   
#>  4    13 2018-07-22     2018-07-22   G.17 In… TRUE          http:… <NA>   
#>  5    14 2018-07-22     2018-07-22   G.19 Co… TRUE          http:… <NA>   
#>  6    15 2018-07-22     2018-07-22   G.5 For… TRUE          http:… <NA>   
#>  7    17 2018-07-22     2018-07-22   H.10 Fo… TRUE          http:… <NA>   
#>  8    18 2018-07-22     2018-07-22   H.15 Se… TRUE          http:… <NA>   
#>  9    19 2018-07-22     2018-07-22   H.3 Agg… TRUE          http:… <NA>   
#> 10    20 2018-07-22     2018-07-22   H.4.1 F… TRUE          http:… <NA>   
#> # ... with 259 more rows

Get release dates for all releases of economic data.

The function fredr_releases_dates() returns a set of release dates for all FRED releases. The data returned is a tibble where each row represents a release date for a release. For example, to get all release dates (up to the limit of 1000) ordered by descending release date:

fredr_releases_dates()
#> # A tibble: 1,000 x 3
#>    release_id release_name                                date      
#>  *      <int> <chr>                                       <chr>     
#>  1        441 Coinbase Cryptocurrencies                   2018-07-22
#>  2        440 Coinbase Index                              2018-07-22
#>  3        441 Coinbase Cryptocurrencies                   2018-07-21
#>  4        440 Coinbase Index                              2018-07-21
#>  5        441 Coinbase Cryptocurrencies                   2018-07-20
#>  6        440 Coinbase Index                              2018-07-20
#>  7         86 Commercial Paper                            2018-07-20
#>  8         72 Daily Treasury Inflation-Indexed Securities 2018-07-20
#>  9        279 Economic Policy Uncertainty                 2018-07-20
#> 10        378 Federal Funds Data                          2018-07-20
#> # ... with 990 more rows

To instead order the results by ascending release ID:

fredr_releases_dates(
  sort_order = "asc",
  order_by = "release_id"
)
#> # A tibble: 1,000 x 3
#>    release_id release_name                                       date      
#>  *      <int> <chr>                                              <chr>     
#>  1          9 Advance Monthly Sales for Retail and Food Services 2018-01-12
#>  2          9 Advance Monthly Sales for Retail and Food Services 2018-02-14
#>  3          9 Advance Monthly Sales for Retail and Food Services 2018-03-14
#>  4          9 Advance Monthly Sales for Retail and Food Services 2018-04-16
#>  5          9 Advance Monthly Sales for Retail and Food Services 2018-05-15
#>  6          9 Advance Monthly Sales for Retail and Food Services 2018-05-25
#>  7          9 Advance Monthly Sales for Retail and Food Services 2018-06-14
#>  8          9 Advance Monthly Sales for Retail and Food Services 2018-07-16
#>  9         10 Consumer Price Index                               2018-01-12
#> 10         10 Consumer Price Index                               2018-02-14
#> # ... with 990 more rows
…
The function fredr_release() returns data for a single FRED release specified by release_id. The data returned is a tibble where each row represents the specified release. For example, to get release data for the Employment Cost Index release:

fredr_release(release_id = 11L)
#> # A tibble: 1 x 6
#>      id realtime_start realtime_end name        press_release link        
#> * <int> <chr>          <chr>        <chr>       <lgl>         <chr>       
#> 1    11 2018-07-22     2018-07-22   Employment… TRUE          http://www.…

Get release dates for a single release of economic data

The function fredr_release_dates() returns a set of release dates for a single FRED release specified by release_id. The data returned is a tibble where each row represents a release date for the release specified. For example, to get release dates for the Employment Cost Index release:

fredr_release_dates(release_id = 11L)
#> # A tibble: 98 x 2
#>    release_id date      
#>  *      <int> <chr>     
#>  1         11 1996-10-29
#>  2         11 1997-01-28
#>  3         11 1997-04-29
#>  4         11 1997-07-29
#>  5         11 1997-10-28
#>  6         11 1998-01-27
#>  7         11 1998-04-30
#>  8         11 1998-07-30
#>  9         11 1998-10-29
#> 10         11 1999-01-28
#> # ... with 88 more rows

Get the series on a release of economic data

The function fredr_release_series() returns a set of series belonging to the FRED release specified by release_id. The data returned is a tibble where each row represents a series in the release specified. For example, to get series in the Employment Cost Index release:

fredr_release_series(release_id = 10L)
#> # A tibble: 1,000 x 16
#>    id    realtime_start realtime_end title observation_sta… observation_end
#>  * <chr> <chr>          <chr>        <chr> <chr>            <chr>          
#>  1 CPIA… 2018-07-22     2018-07-22   Cons… 1914-12-01       2018-06-01     
#>  2 CPIA… 2018-07-22     2018-07-22   Cons… 1947-01-01       2018-06-01     
#>  3 CPIA… 2018-07-22     2018-07-22   Cons… 1913-01-01       2018-06-01     
#>  4 CPIA… 2018-07-22     2018-07-22   Cons… 1947-01-01       2018-06-01     
#>  5 CPIE… 2018-07-22     2018-07-22   Cons… 1993-01-01       2018-06-01     
#>  6 CPIE… 2018-07-22     2018-07-22   Cons… 1993-01-01       2018-06-01     
#>  7 CPIE… 2018-07-22     2018-07-22   Cons… 1957-01-01       2018-06-01     
#>  8 CPIE… 2018-07-22     2018-07-22   Cons… 1957-01-01       2018-06-01     
#>  9 CPIF… 2018-07-22     2018-07-22   Cons… 1967-01-01       2018-06-01     
#> 10 CPIF… 2018-07-22     2018-07-22   Cons… 1967-01-01       2018-06-01     
#> # ... with 990 more rows, and 10 more variables: frequency <chr>,
#> #   frequency_short <chr>, units <chr>, units_short <chr>,
#> #   seasonal_adjustment <chr>, seasonal_adjustment_short <chr>,
#> #   last_updated <chr>, popularity <int>, group_popularity <int>,
#> #   notes <chr>
…
Get the FRED tags for a release

The function fredr_release_tags() returns a set of tags assigned to series belonging to the FRED release specified by release_id. The data returned is a tibble where each row represents a tag. For example, to get the geographic tags assigned to series in the Consumer Price Index release:

fredr_release_tags(
  release_id = 10L,
  tag_group_id = "geo",
  order_by = "popularity",
  sort_order = "desc"
)
#> # A tibble: 66 x 6
#>    name  group_id notes            created         popularity series_count
#>  * <chr> <chr>    <chr>            <chr>                <int>        <int>
#>  1 usa   geo      United States o… 2012-02-27 10:…         99         4609
#>  2 ca    geo      California       2012-02-27 10:…         60          257
#>  3 tx    geo      Texas            2012-02-27 10:…         55          200
#>  4 fl    geo      Florida          2012-02-27 10:…         53          153
#>  5 il    geo      Illinois         2012-02-27 10:…         52          154
#>  6 ny    geo      New York         2012-02-27 10:…         51          100
#>  7 pa    geo      Pennsylvania     2012-02-27 10:…         49          254
#>  8 wi    geo      Wisconsin        2012-02-27 10:…         48          214
#>  9 mo    geo      Missouri         2012-02-27 10:…         48          107
#> 10 ga    geo      Georgia (U.S. s… 2012-02-27 10:…         47          100
#> # ... with 56 more rows
…
