FRED Tags • fredr
…
“usa”, “county”

“manufacturing”, “exports”, “households”

“sa” (i.e. “seasonally adjusted”)

The following examples illustrate usage of the Tags endpoint functions in fredr.

Get series tags

The function fredr_tags() returns a list of tags matching the request. The data returned is a tibble in which each row represents a FRED tag. For example, running fredr_tags() without any parameters returns the top 1000 FRED tags ordered by number of series who are assigned the tag:

fredr_tags()
#> # A tibble: 1,000 x 6
#>    name        group_id notes         created      popularity series_count
#>  * <chr>       <chr>    <chr>         <chr>             <int>        <int>
#>  1 nsa         seas     Not Seasonal… 2012-02-27 …        100       448104
#>  2 usa         geo      United State… 2012-02-27 …         99       368894
#>  3 annual      freq     ""            2012-02-27 …         91       325473
#>  4 county      geot     County or Co… 2012-02-27 …         76       181325
#>  5 census      src      Census        2012-02-27 …         78       179590
#>  6 nation      geot     ""            2012-02-27 …        100       174523
#>  7 bls         src      Bureau of La… 2012-02-27 …         85       113265
#>  8 monthly     freq     ""            2012-02-27 …         92       100536
#>  9 employment  gen      ""            2012-02-27 …         69        93213
#> 10 prosperity… gen      ""            2017-01-30 …         75        87532
#> # ... with 990 more rows
…
fredr_tags(tag_names = "gdp;oecd")
#> # A tibble: 2 x 6
#>   name  group_id notes                created      popularity series_count
#> * <chr> <chr>    <chr>                <chr>             <int>        <int>
#> 1 oecd  src      Org. for Economic C… 2012-02-27 …         78        61500
#> 2 gdp   gen      Gross Domestic Prod… 2012-02-27 …         83        48660

Return tags for a given group ID:

fredr_tags(
  tag_group_id = "geo",
  limit = 50L
)
#> # A tibble: 50 x 6
#>    name  group_id notes            created         popularity series_count
#>  * <chr> <chr>    <chr>            <chr>                <int>        <int>
#>  1 usa   geo      United States o… 2012-02-27 10:…         99       368894
#>  2 tx    geo      Texas            2012-02-27 10:…         55        22055
#>  3 ga    geo      Georgia (U.S. s… 2012-02-27 10:…         47        12150
#>  4 ca    geo      California       2012-02-27 10:…         60        11969
#>  5 va    geo      Virginia         2012-02-27 10:…         45        10421
#>  6 il    geo      Illinois         2012-02-27 10:…         52         9927
#>  7 ky    geo      Kentucky         2012-02-27 10:…         46         9514
#>  8 mo    geo      Missouri         2012-02-27 10:…         48         9433
#>  9 nc    geo      North Carolina   2012-02-27 10:…         48         9254
#> 10 in    geo      Indiana          2012-02-27 10:…         47         9148
#> # ... with 40 more rows
…
fredr_tags(search_text = "unemployment")
#> # A tibble: 2 x 6
#>   name     group_id notes              created     popularity series_count
#> * <chr>    <chr>    <chr>              <chr>            <int>        <int>
#> 1 unemplo… gen      ""                 2012-02-27…         74        23892
#> 2 nairu    gen      Non-Accelerating … 2012-08-10…         17            2

Note that the example above searches for tags matching "unemployment". To search for the set of series with tags matching "unemployment", use fredr_series_search_tags():

fredr_series_search_tags(
  series_search_text = "unemployment",
  limit = 100L
)
#> # A tibble: 100 x 6
#>    name     group_id notes             created     popularity series_count
#>  * <chr>    <chr>    <chr>             <chr>            <int>        <int>
#>  1 unemplo… gen      ""                2012-02-27…         74        23892
#>  2 nsa      seas     Not Seasonally A… 2012-02-27…        100        23173
#>  3 usa      geo      United States of… 2012-02-27…         99        18376
#>  4 bls      src      Bureau of Labor … 2012-02-27…         85        14408
#>  5 rate     gen      ""                2012-02-27…         87        14216
#>  6 nation   geot     ""                2012-02-27…        100        12647
#>  7 annual   freq     ""                2012-02-27…         91        11127
#>  8 mei      rls      Main Economic In… 2012-08-16…         78        10770
#>  9 oecd     src      Org. for Economi… 2012-02-27…         78        10770
#> 10 county   geot     County or County… 2012-02-27…         76         9504
#> # ... with 90 more rows
…
Get series by tag names

The function fredr_tags_series() returns a list of series assigned tags matching the request. As with the functions for the Series endpoint, the data returned is a tibble in which each row represents a series. For example, to get all series tagged with “gdp”:

fredr_tags_series(tag_names = "gdp")
#> # A tibble: 1,000 x 16
#>    id    realtime_start realtime_end title observation_sta… observation_end
#>  * <chr> <chr>          <chr>        <chr> <chr>            <chr>          
#>  1 A001… 2018-07-22     2018-07-22   Gros… 1929-01-01       2017-01-01     
#>  2 A001… 2018-07-22     2018-07-22   Gros… 1929-01-01       2017-01-01     
#>  3 A001… 2018-07-22     2018-07-22   Gros… 1930-01-01       2017-01-01     
#>  4 A001… 2018-07-22     2018-07-22   Gros… 1947-04-01       2018-01-01     
#>  5 A001… 2018-07-22     2018-07-22   Real… 1930-01-01       2017-01-01     
#>  6 A001… 2018-07-22     2018-07-22   Real… 1947-04-01       2018-01-01     
#>  7 A001… 2018-07-22     2018-07-22   Real… 1948-01-01       2018-01-01     
#>  8 A001… 2018-07-22     2018-07-22   Gros… 1930-01-01       2017-01-01     
#>  9 A001… 2018-07-22     2018-07-22   Gros… 1947-04-01       2018-01-01     
#> 10 A001… 2018-07-22     2018-07-22   Gros… 1930-01-01       2017-01-01     
#> # ... with 990 more rows, and 10 more variables: frequency <chr>,
#> #   frequency_short <chr>, units <chr>, units_short <chr>,
#> #   seasonal_adjustment <chr>, seasonal_adjustment_short <chr>,
#> #   last_updated <chr>, popularity <int>, group_popularity <int>,
#> #   notes <chr>

To get the top 100 most popular non-quarterly series tagged with “gdp”:

fredr_tags_series(
  tag_names = "gdp",
  exclude_tag_names = "quarterly",
  order_by = "popularity",
  limit = 100L
)
#> # A tibble: 100 x 16
#>    id    realtime_start realtime_end title observation_sta… observation_end
#>  * <chr> <chr>          <chr>        <chr> <chr>            <chr>          
#>  1 N408… 2018-07-22     2018-07-22   Comp… 1998-01-01       2016-01-01     
#>  2 J406… 2018-07-22     2018-07-22   Comp… 1987-01-01       2000-01-01     
#>  3 CSPP… 2018-07-22     2018-07-22   Cons… 1993-01-01       2010-01-01     
#>  4 CSPP… 2018-07-22     2018-07-22   Cons… 1950-01-01       2010-01-01     
#>  5 CSPP… 2018-07-22     2018-07-22   Cons… 1950-01-01       2010-01-01     
#>  6 CSPP… 2018-07-22     2018-07-22   Cons… 1955-01-01       2010-01-01     
#>  7 CSPP… 2018-07-22     2018-07-22   Cons… 1970-01-01       2010-01-01     
#>  8 CGDP… 2018-07-22     2018-07-22   Expe… 1990-01-01       2014-01-01     
#>  9 CGDP… 2018-07-22     2018-07-22   Expe… 1990-01-01       2014-01-01     
#> 10 N422… 2018-07-22     2018-07-22   Full… 1998-01-01       2016-01-01     
#> # ... with 90 more rows, and 10 more variables: frequency <chr>,
#> #   frequency_short <chr>, units <chr>, units_short <chr>,
#> #   seasonal_adjustment <chr>, seasonal_adjustment_short <chr>,
#> #   last_updated <chr>, popularity <int>, group_popularity <int>,
#> #   notes <chr>
…
