Get the data vintage dates for a FRED series — fredr_series_vintagedates • fredr
…
    fred/series/vintagedates

    See also

    fredr_series_observations(), fredr_series_search_text(),
fredr_series_search_id(), fredr_series_search_tags(),
fredr_series_search_related_tags(), fredr_series(),
fredr_series_release(), fredr_series_tags(), fredr_series_categories(),
fredr_series_updates().

    Examples

# All data vintages for the "UNRATE" series
fredr_series_vintagedates(series_id = "UNRATE")
#> # A tibble: 701 x 1
#>    vintage_dates
#>    <chr>        
#>  1 1960-03-15   
#>  2 1960-04-12   
#>  3 1960-05-11   
#>  4 1960-06-13   
#>  5 1960-07-12   
#>  6 1960-08-10   
#>  7 1960-09-09   
#>  8 1960-10-10   
#>  9 1960-11-10   
#> 10 1960-12-12   
#> # ... with 691 more rows
…
