Get FRED series tags — fredr_tags • fredr
…
fred/tags

    See also

    fredr_category_tags(), fredr_category_related_tags(), fredr_docs(),
fredr_release_tags(), fredr_release_related_tags(),
fredr_series_search_tags(), fredr_series_search_related_tags(),
fredr_tags_series(), fredr_related_tags()

    Examples

# \donttest{
# Information for all tags
fredr_tags()
#> # A tibble: 1,000 x 6
#>    name             group_id notes          created      popularity series_count
#>    <chr>            <chr>    <chr>          <chr>             <int>        <int>
#>  1 nsa              seas     Not Seasonall… 2012-02-27 …        100       514570
#>  2 public domain: … cc       NA             2018-12-17 …        100       471185
#>  3 usa              geo      United States… 2012-02-27 …         99       429976
#>  4 annual           freq     ""             2012-02-27 …         91       362462
#>  5 nation           geot     ""             2012-02-27 …        100       215998
#>  6 county           geot     County or Cou… 2012-02-27 …         74       196925
#>  7 census           src      Census         2012-02-27 …         77       182831
#>  8 bls              src      Bureau of Lab… 2012-02-27 …         85       136652
#>  9 monthly          freq     ""             2012-02-27 …         92       120445
#> 10 copyrighted: ci… cc       NA             2018-12-17 …         88       115744
#> # … with 990 more rows
# Information for just the "gdp" and "oecd" tags
fredr_tags(tag_names = "gdp;oecd")
#> # A tibble: 2 x 6
#>   name  group_id notes                     created       popularity series_count
#>   <chr> <chr>    <chr>                     <chr>              <int>        <int>
#> 1 oecd  src      Org. for Economic Co-ope… 2012-02-27 1…         77        63847
#> 2 gdp   gen      Gross Domestic Product    2012-02-27 1…         83        49302
# Information for all tags in the "geo" group
fredr_tags(tag_group_id = "geo")
#> # A tibble: 1,000 x 6
#>    name  group_id notes               created            popularity series_count
#>    <chr> <chr>    <chr>               <chr>                   <int>        <int>
#>  1 usa   geo      United States of A… 2012-02-27 10:18:…         99       429976
#>  2 tx    geo      Texas               2012-02-27 10:18:…         55        23576
#>  3 ga    geo      Georgia (U.S. stat… 2012-02-27 10:18:…         46        13101
#>  4 ca    geo      California          2012-02-27 10:18:…         59        12683
#>  5 va    geo      Virginia            2012-02-27 10:18:…         45        11270
#>  6 il    geo      Illinois            2012-02-27 10:18:…         47        10617
#>  7 ky    geo      Kentucky            2012-02-27 10:18:…         43        10246
#>  8 mo    geo      Missouri            2012-02-27 10:18:…         44        10154
#>  9 nc    geo      North Carolina      2012-02-27 10:18:…         48         9931
#> 10 in    geo      Indiana             2012-02-27 10:18:…         46         9799
#> # … with 990 more rows
…
