Search for a FRED series. — fredr_series_search_text • fredr
…
#>  8 ACOI… 2020-05-21     2020-05-21   Crud… 1987-01-01       2018-01-01     
#>  9 WTIS… 2020-05-21     2020-05-21   Spot… 1946-01-01       2020-04-01     
#> 10 IPG2… 2020-05-21     2020-05-21   Indu… 1972-01-01       2020-04-01     
#> # … with 10 more variables: frequency <chr>, frequency_short <chr>,
#> #   units <chr>, units_short <chr>, seasonal_adjustment <chr>,
#> #   seasonal_adjustment_short <chr>, last_updated <chr>, popularity <int>,
#> #   group_popularity <int>, notes <chr>
# search for series with text matching "unemployment" and return only series
# with monthly frequency
fredr_series_search_text(
  search_text = "unemployment",
  filter_variable = "frequency",
  filter_value = "Monthly"
)
#> # A tibble: 1,000 x 16
#>    id    realtime_start realtime_end title observation_sta… observation_end
#>    <chr> <chr>          <chr>        <chr> <chr>            <chr>          
#>  1 UNRA… 2020-05-21     2020-05-21   Unem… 1948-01-01       2020-04-01     
#>  2 UNRA… 2020-05-21     2020-05-21   Unem… 1948-01-01       2020-04-01     
#>  3 UNEM… 2020-05-21     2020-05-21   Unem… 1948-01-01       2020-04-01     
#>  4 LNS1… 2020-05-21     2020-05-21   Unem… 1948-01-01       2020-04-01     
#>  5 LNU0… 2020-05-21     2020-05-21   Unem… 1948-01-01       2020-04-01     
#>  6 LNU0… 2020-05-21     2020-05-21   Unem… 1948-01-01       2020-04-01     
#>  7 U6RA… 2020-05-21     2020-05-21   Tota… 1994-01-01       2020-04-01     
#>  8 LNS1… 2020-05-21     2020-05-21   Unem… 1972-01-01       2020-04-01     
#>  9 M089… 2020-05-21     2020-05-21   Unem… 1929-04-01       1942-06-01     
#> 10 U6RA… 2020-05-21     2020-05-21   Tota… 1994-01-01       2020-04-01     
#> # … with 990 more rows, and 10 more variables: frequency <chr>,
#> #   frequency_short <chr>, units <chr>, units_short <chr>,
#> #   seasonal_adjustment <chr>, seasonal_adjustment_short <chr>,
#> #   last_updated <chr>, popularity <int>, group_popularity <int>, notes <chr>
…
