Get observations of a FRED series — fredr_series_observations • fredr
…
    Examples

# Observations for "UNRATE" series between 1980 and 2000.  Units are in terms
# of change from pervious observation.
fredr(
  series_id = "UNRATE",
  observation_start = as.Date("1980-01-01"),
  observation_end = as.Date("2000-01-01"),
  unit = "chg"
)
#> # A tibble: 241 x 3
#>    date       series_id value
#>    <date>     <chr>     <dbl>
#>  1 1980-01-01 UNRATE      0.3
#>  2 1980-02-01 UNRATE      0  
#>  3 1980-03-01 UNRATE      0  
#>  4 1980-04-01 UNRATE      0.6
#>  5 1980-05-01 UNRATE      0.6
#>  6 1980-06-01 UNRATE      0.1
#>  7 1980-07-01 UNRATE      0.2
#>  8 1980-08-01 UNRATE     -0.1
#>  9 1980-09-01 UNRATE     -0.2
#> 10 1980-10-01 UNRATE      0  
#> # ... with 231 more rows
# All observations for "OILPRICE" series.  The data is first aggregated by
# quarter by taking the average of all observations in the quarter then
# transformed by taking the natural logarithm.
fredr(
  series_id = "OILPRICE",
  frequency = "q",
  aggregation_method = "avg",
  unit = "log"
)
#> # A tibble: 271 x 3
#>    date       series_id value
#>    <date>     <chr>     <dbl>
#>  1 1946-01-01 OILPRICE  0.157
#>  2 1946-04-01 OILPRICE  0.239
#>  3 1946-07-01 OILPRICE  0.362
#>  4 1946-10-01 OILPRICE  0.440
#>  5 1947-01-01 OILPRICE  0.482
#>  6 1947-04-01 OILPRICE  0.626
#>  7 1947-07-01 OILPRICE  0.626
#>  8 1947-10-01 OILPRICE  0.695
#>  9 1948-01-01 OILPRICE  0.944
#> 10 1948-04-01 OILPRICE  0.944
#> # ... with 261 more rows
…
  # Using purrr::pmap_dfr() allows you to use varying optional parameters
  params <- list(
    series_id = c("UNRATE", "OILPRICE"),
    frequency = c("m", "q")
  )

  purrr::pmap_dfr(
    .l = params,
    .f = ~ fredr(series_id = .x, frequency = .y)
  )

}
#> # A tibble: 1,117 x 3
#>    date       series_id value
#>    <date>     <chr>     <dbl>
#>  1 1948-01-01 UNRATE      3.4
#>  2 1948-02-01 UNRATE      3.8
#>  3 1948-03-01 UNRATE      4  
#>  4 1948-04-01 UNRATE      3.9
#>  5 1948-05-01 UNRATE      3.5
#>  6 1948-06-01 UNRATE      3.6
#>  7 1948-07-01 UNRATE      3.6
#>  8 1948-08-01 UNRATE      3.9
#>  9 1948-09-01 UNRATE      3.8
#> 10 1948-10-01 UNRATE      3.7
#> # ... with 1,107 more rows
…
