FRED Categories • fredr
…
Get series in a category

fredr_category_series() returns detailed information for the FRED series belonging to the category specified by category_id. The data returned is a tibble in which each row represents a series belonging to the category specified. For example, to get the top 100 quarterly series in the “Housing” category, ordering the results so that the most recently updated series appear first:

fredr_category_series(
  category_id = 97L, # Housing
  limit = 100L,
  order_by = "last_updated",
  filter_variable = "frequency",
  filter_value = "Quarterly"
)
#> # A tibble: 30 × 16
#>    id        realt…¹ realt…² title obser…³ obser…⁴ frequ…⁵ frequ…⁶ units units…⁷
#>    <chr>     <chr>   <chr>   <chr> <chr>   <chr>   <chr>   <chr>   <chr> <chr>  
#>  1 USSTHPI   2022-0… 2022-0… All-… 1975-0… 2022-0… Quarte… Q       Inde… Index …
#>  2 PONHPIM2… 2022-0… 2022-0… Purc… 1991-0… 2022-0… Quarte… Q       Inde… Index …
#>  3 PONHPIM2… 2022-0… 2022-0… Purc… 1991-0… 2022-0… Quarte… Q       Inde… Index …
#>  4 TDSP      2022-0… 2022-0… Hous… 1980-0… 2022-0… Quarte… Q       Perc… %      
#>  5 MDSP      2022-0… 2022-0… Mort… 1980-0… 2022-0… Quarte… Q       Perc… %      
#>  6 CDSP      2022-0… 2022-0… Cons… 1980-0… 2022-0… Quarte… Q       Perc… %      
#>  7 FODSP     2022-0… 2022-0… Hous… 1980-0… 2022-0… Quarte… Q       Perc… %      
#>  8 RHORUSQ1… 2022-0… 2022-0… Home… 1965-0… 2022-0… Quarte… Q       Perc… %      
#>  9 RRVRUSQ1… 2022-0… 2022-0… Rent… 1956-0… 2022-0… Quarte… Q       Perc… %      
#> 10 ETOTALUS… 2022-0… 2022-0… Hous… 2000-0… 2022-0… Quarte… Q       Thou… Thous.…
#> # … with 20 more rows, 6 more variables: seasonal_adjustment <chr>,
#> #   seasonal_adjustment_short <chr>, last_updated <chr>, popularity <int>,
#> #   group_popularity <int>, notes <chr>, and abbreviated variable names
#> #   ¹​realtime_start, ²​realtime_end, ³​observation_start, ⁴​observation_end,
#> #   ⁵​frequency, ⁶​frequency_short, ⁷​units_short
…
Get related tags within a FRED category

fredr_category_related_tags() returns a set of FRED tags assigned to series in the category specified by category_id that are related to the tags specified in the tag_names parameter. The data returned is a tibble in which each row represents a tag related to a tag assigned to a series in the specified category. For example, to get all tags except "rate" in the “Retail Trade” category related to the tags "business" and "monthly", ordering the results alphabetically:

fredr_category_related_tags(
  category_id = 1L,
  tag_names = "business;monthly",
  exclude_tag_names = "rate",
  order_by = "name"
)
#> # A tibble: 107 × 6
#>    name                  group_id notes      created             popul…¹ serie…²
#>    <chr>                 <chr>    <chr>      <chr>                 <int>   <int>
#>  1 accommodation         gen      ""         2012-02-27 10:18:1…      31      22
#>  2 administrative        gen      ""         2012-02-27 10:18:1…      20      18
#>  3 agriculture           gen      ""         2012-02-27 10:18:1…      49      18
#>  4 ak                    geo      "Alaska"   2012-02-27 10:18:1…      34      24
#>  5 al                    geo      "Alabama"  2012-02-27 10:18:1…      44      22
#>  6 ar                    geo      "Arkansas" 2012-02-27 10:18:1…      43      12
#>  7 arts                  gen      ""         2012-02-27 10:18:1…      25      26
#>  8 average               gen      ""         2015-05-06 14:42:1…      53     136
#>  9 az                    geo      "Arizona"  2012-02-27 10:18:1…      48      28
#> 10 business applications gen       NA        2019-03-19 15:47:1…      30     714
#> # … with 97 more rows, and abbreviated variable names ¹​popularity,
#> #   ²​series_count
…
