FRED Series • fredr
…
Real Gross National Product (series_id = "GNPCA")

Effective Federal Funds Rate (series_id = "FEDFUNDS")

FRED series are assigned categories and tags attributes for organization and classification. The following examples illustrate usage of the Series endpoint functions in fredr.

Retrieve observations

The function fredr(), an alias for fredr_series_observations(), is the core function in fredr for fetching FRED data series. See the Get started article and ?fredr() for many usage examples.

fredr(
  series_id = "UNRATE",
  observation_start = as.Date("1990-01-01")
)
#> # A tibble: 389 × 5
#>    date       series_id value realtime_start realtime_end
#>    <date>     <chr>     <dbl> <date>         <date>      
#>  1 1990-01-01 UNRATE      5.4 2022-06-06     2022-06-06  
#>  2 1990-02-01 UNRATE      5.3 2022-06-06     2022-06-06  
#>  3 1990-03-01 UNRATE      5.2 2022-06-06     2022-06-06  
#>  4 1990-04-01 UNRATE      5.4 2022-06-06     2022-06-06  
#>  5 1990-05-01 UNRATE      5.4 2022-06-06     2022-06-06  
#>  6 1990-06-01 UNRATE      5.2 2022-06-06     2022-06-06  
#>  7 1990-07-01 UNRATE      5.5 2022-06-06     2022-06-06  
#>  8 1990-08-01 UNRATE      5.7 2022-06-06     2022-06-06  
#>  9 1990-09-01 UNRATE      5.9 2022-06-06     2022-06-06  
#> 10 1990-10-01 UNRATE      5.9 2022-06-06     2022-06-06  
#> # … with 379 more rows

Search for FRED series

Use fredr_series_search_text() to search for a series by text in the series description. The data returned is a tibble where each row represents series with description text that matches the text specified by search_text. For example, to search for series with description text that matches “UNRATE”:

fredr_series_search_text(
  search_text = "unemployment",
  limit = 100L
)
#> # A tibble: 100 × 16
#>    id         realtime_start realtime_end title observation_sta… observation_end
#>    <chr>      <chr>          <chr>        <chr> <chr>            <chr>          
#>  1 UNRATE     2022-06-06     2022-06-06   Unem… 1948-01-01       2022-05-01     
#>  2 UNRATENSA  2022-06-06     2022-06-06   Unem… 1948-01-01       2022-05-01     
#>  3 NROU       2022-06-06     2022-06-06   Nonc… 1949-01-01       2032-10-01     
#>  4 UNEMPLOY   2022-06-06     2022-06-06   Unem… 1948-01-01       2022-05-01     
#>  5 LNS140000… 2022-06-06     2022-06-06   Unem… 1972-01-01       2022-05-01     
#>  6 U6RATE     2022-06-06     2022-06-06   Tota… 1994-01-01       2022-05-01     
#>  7 LNU040000… 2022-06-06     2022-06-06   Unem… 1972-01-01       2022-05-01     
#>  8 CCSA       2022-06-06     2022-06-06   Cont… 1967-01-07       2022-05-21     
#>  9 LNU030000… 2022-06-06     2022-06-06   Unem… 1948-01-01       2022-05-01     
#> 10 CCNSA      2022-06-06     2022-06-06   Cont… 1967-01-07       2022-05-21     
#> # … with 90 more rows, and 10 more variables: frequency <chr>,
#> #   frequency_short <chr>, units <chr>, units_short <chr>,
#> #   seasonal_adjustment <chr>, seasonal_adjustment_short <chr>,
#> #   last_updated <chr>, popularity <int>, group_popularity <int>, notes <chr>
…
Search for FRED series by tags

Use fredr_series_search_tags() to search for series tags. The data returned is a tibble where each row represents a tag matching the text in series_search_text. For example, to return the top 100 tags (by series count) matching the text "unemployment":

fredr_series_search_tags(
  series_search_text = "unemployment",
  limit = 100L
)
#> # A tibble: 100 × 6
#>    name                           group_id notes created popularity series_count
#>    <chr>                          <chr>    <chr> <chr>        <int>        <int>
#>  1 nsa                            seas     "Not… 2012-0…        100        46506
#>  2 usa                            geo      "Uni… 2012-0…        100        41758
#>  3 public domain: citation reque… cc        NA   2018-1…        100        41434
#>  4 bls                            src      "Bur… 2012-0…         88        37550
#>  5 unemployment                   gen      ""    2012-0…         73        32486
#>  6 county                         geot     "Cou… 2012-0…         77        28298
#>  7 annual                         freq     ""    2012-0…         89        23986
#>  8 household survey               gen      "Cur… 2012-0…         63        20014
#>  9 monthly                        freq     ""    2012-0…         94        18894
#> 10 rate                           gen      ""    2012-0…         85        14850
#> # … with 90 more rows

Search for FRED series by related tags

Use fredr_search_related_tags() to search for series tags related to a given tag. The data returned is a tibble where each row represents a tag who’s series matches the text in series_search_text and related tags specified by tag_names. For example, to search for tags related to the tag "usa" in which the series text matches "gnp", use the following:

fredr_series_search_related_tags(
  series_search_text = "gnp",
  tag_names = "usa",
  limit = 30L
)
#> # A tibble: 30 × 6
#>    name                           group_id notes created popularity series_count
#>    <chr>                          <chr>    <chr> <chr>        <int>        <int>
#>  1 nation                         geot     ""    2012-0…         99           60
#>  2 gnp                            gen      "Gro… 2012-0…         34           46
#>  3 public domain: citation reque… cc        NA   2018-1…        100           40
#>  4 quarterly                      freq     ""    2012-0…         85           38
#>  5 sa                             seas     "Sea… 2012-0…         88           34
#>  6 bea                            src      "Bur… 2012-0…         78           32
#>  7 nipa                           rls      "Nat… 2012-0…         71           32
#>  8 nsa                            seas     "Not… 2012-0…        100           26
#>  9 annual                         freq     ""    2012-0…         89           22
#> 10 gdp                            gen      "Gro… 2012-0…         81           22
#> # … with 20 more rows
…
Get the vintage dates for a FRED series

The fredr_series_vintagedates() function returns a sequence of dates in history when the series specified by series_id was revised or appended to. The data returned is a tibble where each row is a date. For example, to get the vintage dates for the series UNRATE:

fredr_series_vintagedates(series_id = "UNRATE")
#> # A tibble: 748 × 1
#>    vintage_dates
#>    <chr>        
#>  1 1960-03-15   
#>  2 1960-04-12   
#>  3 1960-05-11   
#>  4 1960-06-13   
#>  5 1960-07-12   
#>  6 1960-08-10   
#>  7 1960-09-09   
#>  8 1960-10-10   
#>  9 1960-11-10   
#> 10 1960-12-12   
#> # … with 738 more rows
…
