FRED Tags • fredr
…
fredr_tags(tag_names = "gdp;oecd", limit = 10)
#> # A tibble: 2 × 6
#>   name  group_id notes                                   created popul…¹ serie…²
#>   <chr> <chr>    <chr>                                   <chr>     <int>   <int>
#> 1 gdp   gen      Gross Domestic Product                  2012-0…      81   74146
#> 2 oecd  src      Org. for Economic Co-operation and Dev… 2012-0…      75   63378
#> # … with abbreviated variable names ¹​popularity, ²​series_count

Return tags for a given group ID:

fredr_tags(
  tag_group_id = "geo",
  limit = 50L
)
#> # A tibble: 50 × 6
#>    name  group_id notes                    created               popul…¹ serie…²
#>    <chr> <chr>    <chr>                    <chr>                   <int>   <int>
#>  1 usa   geo      United States of America 2012-02-27 10:18:19-…     100  654582
#>  2 tx    geo      Texas                    2012-02-27 10:18:19-…      60   35616
#>  3 ga    geo      Georgia (U.S. state)     2012-02-27 10:18:19-…      51   21004
#>  4 ca    geo      California               2012-02-27 10:18:19-…      62   18128
#>  5 nc    geo      North Carolina           2012-02-27 10:18:19-…      51   17232
#>  6 va    geo      Virginia                 2012-02-27 10:18:19-…      49   17086
#>  7 oh    geo      Ohio                     2012-02-27 10:18:19-…      49   16252
#>  8 il    geo      Illinois                 2012-02-27 10:18:19-…      49   16244
#>  9 ky    geo      Kentucky                 2012-02-27 10:18:19-…      45   15552
#> 10 mo    geo      Missouri                 2012-02-27 10:18:19-…      47   15306
#> # … with 40 more rows, and abbreviated variable names ¹​popularity,
#> #   ²​series_count
…
fredr_tags(search_text = "unemployment")
#> # A tibble: 2 × 6
#>   name         group_id notes                            created popul…¹ serie…²
#>   <chr>        <chr>    <chr>                            <chr>     <int>   <int>
#> 1 unemployment gen      ""                               2012-0…      71   32692
#> 2 nairu        gen      "Non-Accelerating Inflation Rat… 2012-0…      18       2
#> # … with abbreviated variable names ¹​popularity, ²​series_count

Note that the example above searches for tags matching "unemployment". To search for the set of series with tags matching "unemployment", use fredr_series_search_tags():

fredr_series_search_tags(
  series_search_text = "unemployment",
  limit = 100L
)
#> # A tibble: 100 × 6
#>    name                              group_id notes      created popul…¹ serie…²
#>    <chr>                             <chr>    <chr>      <chr>     <int>   <int>
#>  1 nsa                               seas     "Not Seas… 2012-0…      99   44602
#>  2 usa                               geo      "United S… 2012-0…     100   42300
#>  3 public domain: citation requested cc        NA        2018-1…      99   42040
#>  4 bls                               src      "Bureau o… 2012-0…      88   38118
#>  5 unemployment                      gen      ""         2012-0…      71   32792
#>  6 county                            geot     "County o… 2012-0…      77   28430
#>  7 annual                            freq     ""         2012-0…      88   23968
#>  8 household survey                  gen      "Current … 2012-0…      62   20046
#>  9 monthly                           freq     ""         2012-0…      94   18996
#> 10 rate                              gen      ""         2012-0…      84   14986
#> # … with 90 more rows, and abbreviated variable names ¹​popularity,
#> #   ²​series_count
…
Get series by tag names

The function fredr_tags_series() returns a list of series assigned tags matching the request. As with the functions for the Series endpoint, the data returned is a tibble in which each row represents a series. For example, to get all series tagged with "gdp":

fredr_tags_series(tag_names = "gdp")
#> # A tibble: 1,000 × 16
#>    id        realt…¹ realt…² title obser…³ obser…⁴ frequ…⁵ frequ…⁶ units units…⁷
#>    <chr>     <chr>   <chr>   <chr> <chr>   <chr>   <chr>   <chr>   <chr> <chr>  
#>  1 A001RD3A… 2023-0… 2023-0… Gros… 1929-0… 2021-0… Annual  A       Inde… Index …
#>  2 A001RG3A… 2023-0… 2023-0… Gros… 1929-0… 2021-0… Annual  A       Inde… Index …
#>  3 A001RI1A… 2023-0… 2023-0… Gros… 1930-0… 2021-0… Annual  A       Perc… % Chg.…
#>  4 A001RI1Q… 2023-0… 2023-0… Gros… 1947-0… 2022-0… Quarte… Q       Perc… % Chg.…
#>  5 A001RL1A… 2023-0… 2023-0… Real… 1930-0… 2021-0… Annual  A       Perc… % Chg.…
#>  6 A001RL1Q… 2023-0… 2023-0… Real… 1947-0… 2022-0… Quarte… Q       Perc… % Chg.…
#>  7 A001RO1Q… 2023-0… 2023-0… Real… 1948-0… 2022-0… Quarte… Q       Perc… % Chg.…
#>  8 A001RP1A… 2023-0… 2023-0… Gros… 1930-0… 2021-0… Annual  A       Perc… % Chg.…
#>  9 A001RP1Q… 2023-0… 2023-0… Gros… 1947-0… 2022-0… Quarte… Q       Perc… % Chg.…
#> 10 A001RV1A… 2023-0… 2023-0… Gros… 1930-0… 2021-0… Annual  A       Perc… % Chg.…
#> # … with 990 more rows, 6 more variables: seasonal_adjustment <chr>,
#> #   seasonal_adjustment_short <chr>, last_updated <chr>, popularity <int>,
#> #   group_popularity <int>, notes <chr>, and abbreviated variable names
#> #   ¹​realtime_start, ²​realtime_end, ³​observation_start, ⁴​observation_end,
#> #   ⁵​frequency, ⁶​frequency_short, ⁷​units_short

To get the top 100 most popular non-quarterly series tagged with "gdp":

fredr_tags_series(
  tag_names = "gdp",
  exclude_tag_names = "quarterly",
  order_by = "popularity",
  limit = 100L
)
#> # A tibble: 100 × 16
#>    id        realt…¹ realt…² title obser…³ obser…⁴ frequ…⁵ frequ…⁶ units units…⁷
#>    <chr>     <chr>   <chr>   <chr> <chr>   <chr>   <chr>   <chr>   <chr> <chr>  
#>  1 RKMTACCF… 2023-0… 2023-0… Chai… 1997-0… 2021-0… Annual  A       Inde… Index …
#>  2 VAACCFDQ… 2023-0… 2023-0… Chai… 1997-0… 2021-0… Annual  A       Inde… Index …
#>  3 AZADMINW… 2023-0… 2023-0… Chai… 1997-0… 2021-0… Annual  A       Inde… Index …
#>  4 TNADMINW… 2023-0… 2023-0… Chai… 1997-0… 2021-0… Annual  A       Inde… Index …
#>  5 WVAGRQGSP 2023-0… 2023-0… Chai… 1997-0… 2021-0… Annual  A       Inde… Index …
#>  6 NVARTENT… 2023-0… 2023-0… Chai… 1997-0… 2021-0… Annual  A       Inde… Index …
#>  7 NYARTENT… 2023-0… 2023-0… Chai… 1997-0… 2021-0… Annual  A       Inde… Index …
#>  8 GLAKARTE… 2023-0… 2023-0… Chai… 1997-0… 2021-0… Annual  A       Inde… Index …
#>  9 IDCONSTQ… 2023-0… 2023-0… Chai… 1997-0… 2021-0… Annual  A       Inde… Index …
#> 10 IACONSTQ… 2023-0… 2023-0… Chai… 1997-0… 2021-0… Annual  A       Inde… Index …
#> # … with 90 more rows, 6 more variables: seasonal_adjustment <chr>,
#> #   seasonal_adjustment_short <chr>, last_updated <chr>, popularity <int>,
#> #   group_popularity <int>, notes <chr>, and abbreviated variable names
#> #   ¹​realtime_start, ²​realtime_end, ³​observation_start, ⁴​observation_end,
#> #   ⁵​frequency, ⁶​frequency_short, ⁷​units_short
…
