Getting started with fredr • fredr
…
fredr_set_key("abcdefghijklmnopqrstuvwxyz123456")

Again, this will only set the key for the current R session, and it is recommended to use an environment variable.

Retrieve series observations

fredr() (an alias for fredr_series_observations()) retrieves series observations (i.e. the actual time series data) for a specified FRED series ID. The function returns a tibble with 3 columns (observation date, series ID, and value).

fredr(
  series_id = "UNRATE",
  observation_start = as.Date("1990-01-01"),
  observation_end = as.Date("2000-01-01")
)
#> # A tibble: 121 × 5
#>    date       series_id value realtime_start realtime_end
#>    <date>     <chr>     <dbl> <date>         <date>      
#>  1 1990-01-01 UNRATE      5.4 2022-05-16     2022-05-16  
#>  2 1990-02-01 UNRATE      5.3 2022-05-16     2022-05-16  
#>  3 1990-03-01 UNRATE      5.2 2022-05-16     2022-05-16  
#>  4 1990-04-01 UNRATE      5.4 2022-05-16     2022-05-16  
#>  5 1990-05-01 UNRATE      5.4 2022-05-16     2022-05-16  
#>  6 1990-06-01 UNRATE      5.2 2022-05-16     2022-05-16  
#>  7 1990-07-01 UNRATE      5.5 2022-05-16     2022-05-16  
#>  8 1990-08-01 UNRATE      5.7 2022-05-16     2022-05-16  
#>  9 1990-09-01 UNRATE      5.9 2022-05-16     2022-05-16  
#> 10 1990-10-01 UNRATE      5.9 2022-05-16     2022-05-16  
#> # … with 111 more rows

Leverage the native features of the FRED API by passing additional parameters:

fredr(
  series_id = "UNRATE",
  observation_start = as.Date("1990-01-01"),
  observation_end = as.Date("2000-01-01"),
  frequency = "q", # quarterly
  units = "chg" # change over previous value
)
#> # A tibble: 41 × 5
#>    date       series_id   value realtime_start realtime_end
#>    <date>     <chr>       <dbl> <date>         <date>      
#>  1 1990-01-01 UNRATE    -0.0667 2022-05-16     2022-05-16  
#>  2 1990-04-01 UNRATE     0.0333 2022-05-16     2022-05-16  
#>  3 1990-07-01 UNRATE     0.367  2022-05-16     2022-05-16  
#>  4 1990-10-01 UNRATE     0.433  2022-05-16     2022-05-16  
#>  5 1991-01-01 UNRATE     0.467  2022-05-16     2022-05-16  
#>  6 1991-04-01 UNRATE     0.233  2022-05-16     2022-05-16  
#>  7 1991-07-01 UNRATE     0.0333 2022-05-16     2022-05-16  
#>  8 1991-10-01 UNRATE     0.233  2022-05-16     2022-05-16  
#>  9 1992-01-01 UNRATE     0.267  2022-05-16     2022-05-16  
#> 10 1992-04-01 UNRATE     0.233  2022-05-16     2022-05-16  
#> # … with 31 more rows
…
Using purrr::pmap_dfr() allows you to use varying optional parameters as well.

params <- list(
  series_id = c("UNRATE", "OILPRICE"),
  frequency = c("m", "q")
)

pmap_dfr(
  .l = params,
  .f = ~ fredr(series_id = .x, frequency = .y)
)
#> # A tibble: 1,163 × 5
#>    date       series_id value realtime_start realtime_end
#>    <date>     <chr>     <dbl> <date>         <date>      
#>  1 1948-01-01 UNRATE      3.4 2022-05-16     2022-05-16  
#>  2 1948-02-01 UNRATE      3.8 2022-05-16     2022-05-16  
#>  3 1948-03-01 UNRATE      4   2022-05-16     2022-05-16  
#>  4 1948-04-01 UNRATE      3.9 2022-05-16     2022-05-16  
#>  5 1948-05-01 UNRATE      3.5 2022-05-16     2022-05-16  
#>  6 1948-06-01 UNRATE      3.6 2022-05-16     2022-05-16  
#>  7 1948-07-01 UNRATE      3.6 2022-05-16     2022-05-16  
#>  8 1948-08-01 UNRATE      3.9 2022-05-16     2022-05-16  
#>  9 1948-09-01 UNRATE      3.8 2022-05-16     2022-05-16  
#> 10 1948-10-01 UNRATE      3.7 2022-05-16     2022-05-16  
#> # … with 1,153 more rows
…
Categories

Releases

Series

Sources

Tags

Finally, fredr is packaged with a list of possible endpoints in the tibble named fredr_endpoints:

fredr_endpoints
#> # A tibble: 31 × 3
#>    endpoint                   type       note                                   
#>    <chr>                      <chr>      <chr>                                  
#>  1 fred/category              Categories Get a category                         
#>  2 fred/category/children     Categories Get the child categories for a specifi…
#>  3 fred/category/related      Categories Get the related categories for a categ…
#>  4 fred/category/series       Categories Get the series in a category           
#>  5 fred/category/tags         Categories Get the tags for a category            
#>  6 fred/category/related_tags Categories Get the related tags for a category    
#>  7 fred/releases              Releases   Get all releases of economic data      
#>  8 fred/releases/dates        Releases   Get release dates for all releases of …
#>  9 fred/release               Releases   Get a release of economic data         
#> 10 fred/release/dates         Releases   Get release dates for a release of eco…
#> # … with 21 more rows
…
To get the most out of the native features of the FRED API, it is highly recommended to review the API endpoint documentation. Within an R session, you can quickly access the web documentation with the convenience function fredr_docs().

fredr_docs()

General queries

You can also use the low-level function fredr_request() to run more general queries against any FRED API endpoint (e.g. Categories, Series, Sources, Releases, Tags). The required parameter is endpoint (see fredr_endpoints for a list of valid endpoints) and then all API parameters are passed through as named arguments. For example:

fredr_request(
  endpoint = "tags/series", 
  tag_names = "population;south africa", 
  limit = 25L
)
#> # A tibble: 25 × 16
#>    id         realtime_start realtime_end title observation_sta… observation_end
#>    <chr>      <chr>          <chr>        <chr> <chr>            <chr>          
#>  1 LFWA24TTZ… 2022-05-16     2022-05-16   Work… 2008-01-01       2020-01-01     
#>  2 LFWA24TTZ… 2022-05-16     2022-05-16   Work… 2008-01-01       2020-01-01     
#>  3 LFWA24TTZ… 2022-05-16     2022-05-16   Work… 2008-01-01       2021-07-01     
#>  4 LFWA24TTZ… 2022-05-16     2022-05-16   Work… 2008-01-01       2021-07-01     
#>  5 LFWA25TTZ… 2022-05-16     2022-05-16   Work… 2008-01-01       2020-01-01     
#>  6 LFWA25TTZ… 2022-05-16     2022-05-16   Work… 2008-01-01       2020-01-01     
#>  7 LFWA25TTZ… 2022-05-16     2022-05-16   Work… 2008-01-01       2021-07-01     
#>  8 LFWA25TTZ… 2022-05-16     2022-05-16   Work… 2008-01-01       2021-07-01     
#>  9 LFWA55TTZ… 2022-05-16     2022-05-16   Work… 2008-01-01       2020-01-01     
#> 10 LFWA55TTZ… 2022-05-16     2022-05-16   Work… 2008-01-01       2020-01-01     
#> # … with 15 more rows, and 10 more variables: frequency <chr>,
#> #   frequency_short <chr>, units <chr>, units_short <chr>,
#> #   seasonal_adjustment <chr>, seasonal_adjustment_short <chr>,
#> #   last_updated <chr>, popularity <int>, group_popularity <int>, notes <chr>
…
